[
"about",
"aboutus",
"abuse",
"acme",
"ad",
"admanager",
"admin",
"admindashboard",
"administrator",
"ads",
"adsense",
"adult",
"adwords",
"adwords?",
"affiliate",
"affiliatepage",
"affiliates",
"afp",
"analytics",
"android",
"answer",
"answers",
"ap",
"api",
"api1",
"api2",
"api3",
"api\\d*",
"apis",
"app",
"appengine",
"application",
"appnews",
"apps",
"asdf",
"asset",
"assets",
"assets1",
"assets2",
"assets3",
"assets4",
"assets5",
"asset[s\\d]*",
"backup",
"bank",
"base",
"beginners",
"beta",
"beta\\d*",
"billing",
"binaries",
"binary",
"biz",
"blackberry",
"blog",
"blogs",
"blogsearch",
"book",
"books",
"buy",
"buzz",
"cache",
"calendar",
"cart",
"catalog",
"catalogs",
"chart",
"charts",
"chat",
"checkout",
"ci",
"client",
"clients",
"clients?",
"clients1",
"cname",
"cnarne",
"code",
"community",
"confirm",
"confirmation",
"contact",
"contacts",
"contactus",
"contact-us",
"content",
"controlpanel",
"core",
"corp",
"countries",
"country",
"cpanel",
"cp\\d*",
"css",
"css1",
"css2",
"css3",
"css\\d*",
"cvs",
"dashboard",
"data",
"demo",
"deploy",
"deployment",
"staging",
"desktop",
"dev",
"devel",
"developer",
"developers",
"developers?",
"development",
"dir",
"directory",
"discussions?",
"dl",
"doc",
"docs",
"docs?",
"documents",
"donate",
"download",
"downloads",
"e",
"earth",
"email",
"e?mail",
"webmail",
"enable",
"encrypted",
"engine",
"error",
"errorlog",
"errors",
"features",
"feed",
"feedburner",
"feedproxy",
"feeds",
"feeds?",
"file",
"files",
"files?",
"finance",
"folder",
"folders",
"forgotpassword",
"forum",
"forum?",
"forums",
"friend",
"friends",
"ftp",
"fuck",
"fun",
"fusion",
"gadget",
"gears",
"geographic",
"gettingstarted",
"git",
"gmail",
"go",
"goto",
"gov",
"graph",
"graphs",
"graphs?",
"group",
"groups",
"help",
"home",
"html",
"htrnl",
"http",
"https",
"https?",
"i",
"i\\d*",
"image",
"images",
"images?",
"img",
"img1",
"img2",
"img3",
"img\\d*",
"investor",
"investors",
"investors?",
"invoice",
"invoices",
"ios",
"ipad",
"iphone",
"irnages",
"irng",
"items",
"jobs?",
"join",
"js",
"js1",
"js2",
"js\\d*'",
"lab",
"labs",
"legal",
"list",
"lists",
"local",
"locale",
"location",
"log",
"login",
"logs",
"logs?",
"m",
"mail",
"manage",
"manager",
"map",
"maps",
"marketing",
"media",
"message",
"messages",
"misc",
"mms",
"mobile",
"model",
"models",
"money",
"movie",
"movies",
"my",
"mystore",
"net",
"network",
"networks",
"networks?",
"new",
"news",
"newsite",
"ns",
"ns1",
"ns2",
"ns3",
"ns4",
"ns5",
"ns\\d*",
"online",
"order",
"org",
"other",
"p0rn",
"pack",
"page",
"pages",
"partner",
"partnerpage",
"partners",
"password",
"payment",
"payment",
"payments",
"people",
"person",
"places",
"podcasts",
"pop",
"pop3",
"pop\\d?",
"popular",
"porn",
"pr0n",
"pricing",
"print",
"private",
"prod",
"production",
"products",
"profile",
"profiles",
"promo",
"promotions",
"proxies",
"proxy",
"public",
"purchase",
"queries",
"radio",
"random",
"reader",
"recover",
"redirect",
"register",
"registration",
"release",
"reports",
"research",
"resolve",
"resolver",
"rnail",
"rnicrosoft",
"rss",
"sale",
"sandbox",
"scholar",
"s\\d*",
"ftp",
"search",
"secure",
"seminars",
"server",
"servers",
"servers?",
"service",
"services",
"service",
"uploads?",
"shop",
"shopping",
"shortcut",
"shortcuts",
"signin",
"signup",
"sitemap",
"sitenews",
"sites",
"sketchup",
"sky",
"slash",
"slashinvoice",
"slut",
"sms",
"smtp",
"smtp",
"soap",
"software",
"sorry",
"spreadsheet",
"spreadsheets",
"srntp",
"ssl",
"ssh",
"stage",
"staging",
"staging",
"features",
"static",
"statistics",
"statistics?",
"stats",
"stats?",
"status",
"store",
"suggest",
"suggestqueries",
"support",
"survey",
"surveys",
"surveys?",
"surveytool",
"svn",
"sync",
"sysadmins",
"talk",
"talkgadget",
"test",
"testers?",
"testing",
"text",
"tool",
"toolbar",
"toolbars",
"tools",
"trac",
"translate",
"translation",
"translator",
"trends",
"txt",
"ul",
"upload",
"uploads",
"validation",
"validation",
"validations",
"video",
"videos",
"videos?",
"video-stats",
"voice",
"w",
"wave",
"webdisk",
"webmail",
"webmaster",
"webmaster",
"webrnail",
"whm",
"whois",
"wifi",
"wiki",
"ww",
"www",
"www1",
"www2",
"www\\d*",
"wwww",
"xhtml",
"xhtrnl",
"xml",
"xxx"
]